…
``` r
ask_receive_counts <- ask_receive %>%
  filter(centrePassRec != 'UNKNOWN', secondPhaseRec != 'UNKNOWN') %>%
  mutate(Centre = 'C') %>%
  rename(
    'Centre pass receiver' = centrePassRec,
    'Second phase receiver' = secondPhaseRec
  ) %>%
  count(Centre, `Centre pass receiver`, `Second phase receiver`)
ask_receive_counts
#> # A tibble: 28 x 4
#>    Centre `Centre pass receiver` `Second phase receiver`     n
#>    <chr>  <chr>                  <chr>                   <int>
#>  1 C      GA                     C                         503
#>  2 C      GA                     GA                         37
#>  3 C      GA                     GD                        141
#>  4 C      GA                     GK                          1
#>  5 C      GA                     GS                         77
#>  6 C      GA                     WA                        777
#>  7 C      GA                     WD                        198
#>  8 C      GD                     C                         137
#>  9 C      GD                     GA                         99
#> 10 C      GD                     GD                          2
#> # … with 18 more rows
```
…
